Text Modeling
…
---

## **Exploring the output of topic modeling**

```r
chapter_topics <- tidy(topic_model, matrix = "beta")

chapter_topics
```

```
## # A tibble: 73,440 x 3
##    topic term       beta
##    <int> <chr>     <dbl>
##  1     1 joe   8.69e-104
##  2     2 joe   3.03e-139
##  3     3 joe   1.21e-  2
##  4     4 joe   3.28e- 19
##  5     1 mr    1.90e-  2
##  6     2 mr    1.91e-  4
##  7     3 mr    1.22e-  2
##  8     4 mr    1.15e- 45
##  9     1 biddy 3.21e- 80
## 10     2 biddy 3.84e-149
## # … with 73,430 more rows
```
…
---

## **Exploring the output of topic modeling**

```r
top_terms
```

```
## # A tibble: 40 x 3
##    topic term         beta
##    <int> <chr>       <dbl>
##  1     1 mr        0.0190 
##  2     1 elizabeth 0.0141 
##  3     1 mrs       0.00886
##  4     1 darcy     0.00881
##  5     1 bennet    0.00694
##  6     1 miss      0.00674
##  7     1 jane      0.00652
##  8     1 bingley   0.00607
##  9     1 time      0.00493
## 10     1 good      0.00480
## # … with 30 more rows
```
…
---

## **How are documents classified?**

```r
chapters_gamma <- tidy(topic_model, matrix = "gamma",
                       document_names = rownames(words_sparse))

chapters_gamma
```

```
## # A tibble: 772 x 3
##    document               topic    gamma
##    <chr>                  <int>    <dbl>
##  1 Great Expectations_57      1 0.000792
##  2 Great Expectations_7       1 0.00340 
##  3 Pride and Prejudice_18     1 1.00    
##  4 Great Expectations_17      1 0.0480  
##  5 Great Expectations_27      1 0.000367
##  6 Great Expectations_38      1 0.00110 
##  7 Great Expectations_2       1 0.000531
##  8 Great Expectations_23      1 0.432   
##  9 Great Expectations_15      1 0.000565
## 10 Great Expectations_18      1 0.000277
## # … with 762 more rows
```
…
